 Account Name,Email,Contact,First Name,Last Name,Address,City,State,country,Zip,Account#,Prefer Delivery Time From,Prefer Delivery Time To,Night Delivery
single@try.com,single12@gmail.com,9879879879,Gregory,Degnan,"1696 Isaacs Creek Road
Mattoon",Mattoon,IL, USA,61938,123456,10:00 PM,10:00 AM,yes
singl2Tr@@gmail.com,BSJDF@gmail.com,134344343434,abc,edf,smita tower,ahmedabad,gujaratindia,,380027,12345a6789,22:00:00,07:00:00,no
canada,cabada@gmail.com,56465645654,dsf,sdf,naigra fall,torrento,torrento,canada,123456,54345345,22:00:00,07:00:00,no
