Company Name,Email,Contact,First Name,Last Name,Address,City,State,country,Zip,Role
distributor csv 2,Distributor2@gmail.com,9898989801,fnmae,lanme1,"1696 Isaeacs Creek Road
Mattoon",Mattoon,IL, USA,61938,CEO
distributor csv 4,Distributor4@gmail.com,9898989802,fnmae1,lname2,"302 Smita towers, Gurukul road",Ahmedabad,gujarat,India,380054,Maneger
